…
### 4) Team Metrics:

To get travel and schedule metrics:

```
nba_travel(start_season = 2017,
           end_season = 2020,
           team = c("Los Angeles Lakers", "Boston Celtics"),
           return_home = 3,
           phase = "RS",
           flight_speed = 550)
           
           
# A tibble: 640 x 22
# Groups:   Season, Team [8]
   Season Phase Month  Week Date       Team  Opponent Location `W/L` City  Distance[,1] Route[,1]  Rest TZ   
   <chr>  <chr> <chr> <dbl> <date>     <chr> <chr>    <chr>    <chr> <chr>        <dbl> <chr>     <dbl> <chr>
 1 2016-~ RS    Oct      43 2016-10-26 Bost~ Brookly~ Home     W     Bost~            0 No Travel    15 Amer~
 2 2016-~ RS    Oct      43 2016-10-27 Bost~ Chicago~ Away     L     Chic~          854 Boston -~     0 Amer~
 3 2016-~ RS    Oct      44 2016-10-29 Bost~ Charlot~ Away     W     Char~          589 Chicago ~     1 Amer~
 4 2016-~ RS    Nov      44 2016-11-02 Bost~ Chicago~ Home     W     Bost~          722 Charlott~     3 Amer~
 5 2016-~ RS    Nov      44 2016-11-03 Bost~ Clevela~ Away     L     Clev~          551 Boston -~     0 Amer~
 6 2016-~ RS    Nov      45 2016-11-06 Bost~ Denver ~ Home     L     Bost~          551 Clevelan~     2 Amer~
 7 2016-~ RS    Nov      45 2016-11-09 Bost~ Washing~ Away     L     Wash~          394 Boston -~     2 Amer~
 8 2016-~ RS    Nov      46 2016-11-11 Bost~ New Yor~ Home     W     Bost~          394 Washingt~     1 Amer~
 9 2016-~ RS    Nov      46 2016-11-12 Bost~ Indiana~ Away     W     Indi~          807 Boston -~     0 Amer~
10 2016-~ RS    Nov      46 2016-11-14 Bost~ New Orl~ Away     L     New ~          704 Indianap~     1 Amer~
# ... with 630 more rows, and 8 more variables: `Shift (hrs)`[,1] <dbl>, `Flight Time` <chr>, `Direction (E/W)`[,1] <chr>,
#   `Return Home` <chr>, Latitude <dbl>, Longitude <dbl>, d.Latitude <dbl>, d.Longitude <dbl>
```
…
### 5) Player Metrics:

To get travel and schedule metrics for one or various players use:

```{r}

nba_player_travel(start_season = 2018,
                  end_season = 2020,
                  return_home = 4,
                  team = "Cleveland Cavaliers",
                  player = "Jose Calderon")
                  

# A tibble: 70 x 42
# Groups:   Season, Player [1]
   Season Phase Date       Team  Opponent Location City  `W/L` Route[,1] Distance[,1] TZ    `Flight Time` `Direction (E/W~
   <chr>  <chr> <date>     <chr> <chr>    <chr>    <chr> <chr> <chr>            <dbl> <chr> <chr>         <chr>           
 1 2017-~ RS    2017-10-20 Clev~ Milwauk~ Away     Milw~ W     Clevelan~          340 Amer~ ~55 minutes   West            
 2 2017-~ RS    2017-10-21 Clev~ Orlando~ Home     Clev~ L     Milwauke~          340 Amer~ ~55 minutes   East            
 3 2017-~ RS    2017-10-25 Clev~ Brookly~ Away     New ~ L     Clevelan~          407 Amer~ ~55 minutes   -               
 4 2017-~ RS    2017-10-28 Clev~ New Orl~ Away     New ~ L     New York~         1158 Amer~ ~2.57 hours   West            
 5 2017-~ RS    2017-10-29 Clev~ New Yor~ Home     Clev~ L     New Orle~          913 Amer~ ~2.03 hours   East            
 6 2017-~ RS    2017-11-01 Clev~ Indiana~ Home     Clev~ L     No Travel            0 Amer~ -             -               
 7 2017-~ RS    2017-11-17 Clev~ Los Ang~ Home     Clev~ W     Charlott~          437 Amer~ ~58.27 minut~ -               
 8 2017-~ RS    2017-11-20 Clev~ Detroit~ Away     Detr~ W     Clevelan~           96 Amer~ ~55 minutes   -               
 9 2017-~ RS    2017-11-22 Clev~ Brookly~ Home     Clev~ W     Detroit ~           96 Amer~ ~55 minutes   -               
10 2017-~ RS    2017-11-24 Clev~ Charlot~ Home     Clev~ W     No Travel            0 Amer~ -             -               
# ... with 60 more rows, and 29 more variables: `Return Home` <chr>, Player <chr>, `Team Rest` <dbl>, `Player Rest` <dbl>,
#   `Games Played` <int>, MINs <dbl>, PTS <dbl>, `Shift (hrs)`[,1] <dbl>, fgm <dbl>, fga <dbl>, pctFG <dbl>, fg3m <dbl>,
#   fg3a <dbl>, pctFG3 <dbl>, pctFT <dbl>, fg2m <dbl>, fg2a <dbl>, pctFG2 <dbl>, ftm <dbl>, fta <dbl>, oreb <dbl>,
#   dreb <dbl>, treb <dbl>, ast <dbl>, stl <dbl>, blk <dbl>, tov <dbl>, pf <dbl>, plusminus <dbl>
…
```
<img src="man/images/globe.gif" width="800" />

### 7) Arbitrary Density Indicators

The `nba_density()` function accepts the result of `nba_travel()` and returns a data frame with various common arbitrary game density descriptors.

```{r}
datos <- nba_travel()
nba_density(df = datos)


# A tibble: 7,532 x 13
# Groups:   Season, Phase, Team [138]
   Season  Phase Team          Date       Opponent            `W/L` Location B2B   `B2B-1st` `B2B-2nd` `3in4` `4in5` `5in7`
   <chr>   <chr> <chr>         <date>     <chr>               <chr> <chr>    <chr> <chr>     <chr>     <chr>  <chr>  <chr> 
 1 2017-18 RS    Atlanta Hawks 2017-10-18 Dallas Mavericks    W     Away     No    No        No        No     No     No    
 2 2017-18 RS    Atlanta Hawks 2017-10-20 Charlotte Hornets   L     Away     No    No        No        No     No     No    
 3 2017-18 RS    Atlanta Hawks 2017-10-22 Brooklyn Nets       L     Away     Yes   Yes       No        No     No     No    
 4 2017-18 RS    Atlanta Hawks 2017-10-23 Miami Heat          L     Away     Yes   No        Yes       Yes    No     No    
 5 2017-18 RS    Atlanta Hawks 2017-10-26 Chicago Bulls       L     Away     Yes   Yes       No        No     No     No    
 6 2017-18 RS    Atlanta Hawks 2017-10-27 Denver Nuggets      L     Home     Yes   No        Yes       No     No     No    
 7 2017-18 RS    Atlanta Hawks 2017-10-29 Milwaukee Bucks     L     Home     No    No        No        Yes    No     No    
 8 2017-18 RS    Atlanta Hawks 2017-11-01 Philadelphia 76ers  L     Away     No    No        No        No     No     No    
 9 2017-18 RS    Atlanta Hawks 2017-11-03 Houston Rockets     L     Home     No    No        No        No     No     No    
10 2017-18 RS    Atlanta Hawks 2017-11-05 Cleveland Cavaliers W     Away     Yes   Yes       No        No     No     No    
# ... with 7,522 more rows
```
…
```

If the parameters `player` or `team` are not indicated, it will return all players and teams within the selected dates. Note that for long queries (multiple years/teams) it may take a while.

```{r}

nba_injuries(start_date = "2014-01-01",
             end_date = "2014-01-10")
             

# A tibble: 147 x 5
   Date       Team      Acquired        Relinquished                       Notes                              
   <date>     <chr>     <chr>           <chr>                              <chr>                              
 1 2014-01-01 Bobcats   ""              "Jeffery Taylor / Jeff Taylor (b)" torn right Achilles tendon (DNP)   
 2 2014-01-01 Clippers  ""              "Reggie Bullock"                   placed on IL                       
 3 2014-01-01 Clippers  "Maalik Wayns"  ""                                 activated from IL                  
 4 2014-01-01 Mavericks ""              "Wayne Ellington"                  illness (DNP)                      
 5 2014-01-01 Pelicans  "Eric Gordon"   ""                                 activated from IL                  
 6 2014-01-01 Blazers   "C.J. McCollum" ""                                 activated from IL                  
 7 2014-01-02 Bobcats   ""              "Jeffery Taylor / Jeff Taylor (b)" torn right Achilles tendon (DNP)   
 8 2014-01-02 Bucks     ""              "John Henson"                      sprained left ankle (DNP)          
 9 2014-01-02 Cavaliers ""              "Kyrie Irving"                     bruised left knee (DTD)            
10 2014-01-02 Cavaliers ""              "Kyrie Irving"                     placed on IL with bruised left knee
# ... with 137 more rows
…
